Bone_in_final
…
2022-09-03

Insert data

## Warning: Expecting logical in M10911 / R10911C13: got '<'

## New names:
## * `` -> `...9`
## * `` -> `...10`
## * `` -> `...11`
## * `` -> `...12`
## * `` -> `...13`

## # A tibble: 13,451 x 6
##    date                product_type                     pos   curing    kg value
##    <dttm>              <chr>                            <chr>  <dbl> <dbl> <dbl>
##  1 2015-01-02 00:00:00 PROSCIUTTO PARMA OSSO ET NERA L~ 70.1~     16 157.  1252.
##  2 2015-01-05 00:00:00 PROSCIUTTO PARMA OSSO 16+ CA 325 70.1~     16  65.6  603.
##  3 2015-01-05 00:00:00 PROSCIUTTO PARMA OSSO 5 STELLE ~ 70.1~     16 136.  1369.
##  4 2015-01-05 00:00:00 PROSCIUTTO PARMA OSSO 20 MESI    70.1~     20  21.2  199 
##  5 2015-01-05 00:00:00 PROSCIUTTO PARMA OSSO 5 STELLE ~ 70.1~     16 488.  3999.
##  6 2015-01-07 00:00:00 PROSCIUTTO PARMA OSSO CA 385     70.1~     16  61.8  513.
##  7 2015-01-07 00:00:00 PROSCIUTTO PARMA OSSO LV 348     70.1~     16  30.9  309.
##  8 2015-01-07 00:00:00 PROSCIUTTO PARMA OSSO 16+ L LV ~ 70.1~     16  44.4  444.
##  9 2015-01-07 00:00:00 PROSCIUTTO PARMA OSSO 16 MESI L~ 70.1~     14 450.  3106.
## 10 2015-01-07 00:00:00 PROSCIUTTO PARMA OSSO ANTICA BO~ 70.1~     18  91.1  999.
## # ... with 13,441 more rows

Agregiranje

## `summarise()` has grouped output by 'date', 'pos', 'product_type'. You can
## override using the `.groups` argument.

## # A tibble: 7,468 x 1
##    product_type                          
##    <chr>                                 
##  1 PROSCIUTTO PARMA OSSO 16 MESI CP 369  
##  2 PROSCIUTTO PARMA OSSO 16 MESI L.CA389 
##  3 PROSCIUTTO PARMA OSSO 16 MESI L.RB193 
##  4 PROSCIUTTO PARMA OSSO 16+ L.MC059     
##  5 PROSCIUTTO PARMA OSSO 16+ L.PM142     
##  6 PROSCIUTTO PARMA OSSO 20 MESI L.CA111 
##  7 PROSCIUTTO PARMA OSSO 20 MESI L.CA184 
##  8 PROSCIUTTO PARMA OSSO 20 MESI L.CB112 
##  9 PROSCIUTTO PARMA OSSO 20 MESI L.PM32  
## 10 PROSCIUTTO PARMA OSSO 5 STELLE 20 MESI
## # ... with 7,458 more rows

## # A tibble: 573 x 1
##    pos                  
##    <chr>                
##  1 70.100.009 BEAS S.A.S
##  2 70.100.013 EMPORIO CA
##  3 70.100.024 CESARO BRU
##  4 70.100.038 TI.ERRE S.
##  5 70.100.046 SORGE UGO 
##  6 70.100.048 F.LLI PANA
##  7 70.100.061 ZAGARI F.L
##  8 70.100.066 COOPERATIV
##  9 70.100.067 ALIMENTARI
## 10 70.100.090 TONELLI FA
## # ... with 563 more rows
…
Cross Validacija

## # A tsibble: 168 x 3 [1M]
## # Key:       .id [4]
##       month Consumption   .id
##       <mth>       <dbl> <int>
##  1 2015 Jan      17691.     1
##  2 2015 Feb      29746.     1
##  3 2015 Mar      49994.     1
##  4 2015 Apr      28853.     1
##  5 2015 May      39715.     1
##  6 2015 Jun      45837.     1
##  7 2015 Jul      48803.     1
##  8 2015 Aug      33326.     1
##  9 2015 Sep      45423.     1
## 10 2015 Oct      35139.     1
## # ... with 158 more rows
…
## # A tibble: 8 x 10
##   .model  .type     ME  RMSE   MAE     MPE  MAPE  MASE RMSSE   ACF1
##   <chr>   <chr>  <dbl> <dbl> <dbl>   <dbl> <dbl> <dbl> <dbl>  <dbl>
## 1 theta   Test   -421. 5520. 4315.  -3.32   11.3 0.728 0.734 -0.249
## 2 comb2   Test   -209. 5690. 4420.  -2.43   11.5 0.745 0.757 -0.347
## 3 comb1   Test    178. 5704. 4456.  -1.48   11.5 0.752 0.759 -0.315
## 4 arima   Test    987. 7492. 5725.   0.136  14.4 0.966 0.997 -0.129
## 5 s_naive Test    706. 8220. 6360.  -0.701  16.1 1.07  1.09  -0.179
## 6 ets     Test   1439. 8299. 6207.  -0.606  16.2 1.05  1.10   0.150
## 7 average Test   1397. 9611. 7642.  -2.57   20.4 1.29  1.28   0.209
## 8 naive   Test  -2252. 9903. 8059. -12.4    23.4 1.36  1.32   0.228

## # A tibble: 24 x 11
##        h .model .type      ME   RMSE    MAE     MPE  MAPE  MASE RMSSE  ACF1
##    <int> <chr>  <chr>   <dbl>  <dbl>  <dbl>   <dbl> <dbl> <dbl> <dbl> <dbl>
##  1     1 theta  Test   2678.   4094.  3097.   8.33   9.88 0.522 0.545  -0.5
##  2     2 theta  Test   -242.   2436.  2424.  -1.12   7.03 0.410 0.326  -0.5
##  3     3 theta  Test  -3887.   4019.  3887. -12.0   12.0  0.662 0.542  -0.5
##  4     4 theta  Test  -4051.   7163.  5907. -20.9   26.7  1.02  0.975  -0.5
##  5     5 theta  Test   -849.   4271.  4185.  -3.47  11.8  0.712 0.574  -0.5
##  6     6 theta  Test    -74.6  3461.  3460.  -0.679  7.50 0.586 0.466  -0.5
##  7     7 theta  Test   4688.  11495. 10495.   5.58  18.6  1.77  1.55   -0.5
##  8     8 theta  Test    952.   3678.  3552.   1.24   8.20 0.579 0.475  -0.5
##  9     9 theta  Test  -3496.   3663.  3496.  -8.93   8.93 0.563 0.469  -0.5
## 10    10 theta  Test  -3169.   4159.  3169.  -9.94   9.94 0.519 0.538  -0.5
## # ... with 14 more rows
…
